"kraj","pod25","26az35","36az45","46az55","56az65","66az75","nad75"
"Jihočeský kraj","6,00%","15,85%","27,02%","24,58%","19,98%","6,10%","0,47%"
"Jihomoravský kraj","4,92%","17,18%","25,47%","24,78%","19,26%","7,51%","0,86%"
"Karlovarský kraj","6,11%","17,74%","25,81%","25,12%","17,40%","7,37%","0,46%"
"Kraj Vysočina","4,65%","15,26%","24,27%","28,78%","21,66%","5,38%","0,00%"
"Královéhradecký kraj","4,50%","12,80%","23,35%","27,85%","23,49%","7,74%","0,28%"
"Liberecký kraj","5,24%","15,30%","24,22%","26,35%","21,10%","7,51%","0,28%"
"Moravskoslezský kraj","3,83%","15,38%","29,51%","27,24%","18,74%","4,84%","0,47%"
"Olomoucký kraj","3,22%","14,95%","25,34%","27,62%","20,04%","7,68%","1,14%"
"Pardubický kraj","4,41%","15,56%","28,24%","26,72%","18,87%","5,51%","0,69%"
"Plzeňský kraj","4,44%","18,37%","27,85%","26,22%","17,04%","6,07%","0,00%"
"Středočeský kraj","5,73%","14,72%","26,48%","27,27%","19,37%","6,13%","0,30%"
"Ústecký kraj","4,52%","14,78%","26,19%","27,26%","16,58%","9,03%","1,64%"
"Zlínský kraj","4,41%","14,83%","23,65%","28,68%","20,96%","6,86%","0,61%"
"ČR","4,76%","15,60%","26,13%","26,72%","19,40%","6,78%","0,61%"
