"strana","zeny","kandidati"
"Česká strana národně socialistická","0.833333333333333","60"
"Demokratická strana zelených","0.778947368421053","95"
"Česká strana národně sociální","0.774509803921569","102"
"Strana zdravého rozumu - ne ilegální imigraci - peníze raději pro naše lidi","0.665760869565217","368"
"Změna pro lidi","0.522727272727273","44"
"Nová budoucnost pro Liberecký kraj","0.52","25"
"Strana Starostové za Ústecký kraj","0.466666666666667","15"
"Alternativa pro občany","0.452830188679245","53"
"Změna","0.436781609195402","87"
"NÁRODNÍ FRONTA","0.428571428571429","21"
"Česká strana sociálně demokratická","0.426981919332406","719"
"NEZÁVISLÍ","0.411167512690355","197"
"PATRIOTI","0.407407407407407","27"
"NOVÁ GENERACE","0.389830508474576","59"
"DOMOV s Blokem proti islamizaci","0.389705882352941","136"
"Občané patrioti","0.384615384615385","13"
"JsmePRO! Kraj 2016","0.383333333333333","60"
"Hnutí občanů za kraje","0.375","40"
"Patrioti České republiky","0.375","80"
"Úsvit - Národní Koalice","0.372302158273381","556"
"Východočeši","0.36","25"
"Komunistická strana Československa","0.352941176470588","51"
"ProKraj","0.35","60"
"Dobrá volba","0.342857142857143","70"
"Svoboda a síla","0.342857142857143","70"
"JIHOČEŠI 2012","0.333333333333333","57"
"Strana zelených","0.332558139534884","430"
"Politické hnutí PRO 2016","0.315789473684211","57"
"Severočeši.cz","0.303571428571429","56"
"Národní socialisté - LEV21","0.302325581395349","43"
"PRO Zdraví a Sport","0.296610169491525","118"
"Česká strana regionů","0.294117647058824","17"
"ALTERNATIVA","0.288888888888889","45"
"Čisté Ústí","0.285714285714286","7"
"Sdružení nezávislých kandidátů 1","0.28","50"
"VOK - Volba pro Karlovarský kraj","0.28","50"
"Starostové a osobnosti pro Moravu","0.277777777777778","18"
"Komunistická strana Čech a Moravy","0.273727647867951","727"
"SNK Evropští demokraté","0.267857142857143","112"
"NOVÝ SEVER","0.263157894736842","57"
"Svoboda a přímá demokracie - Tomio Okamura (SPD)","0.259259259259259","405"
"Volba OK","0.258620689655172","58"
"Koruna česká","0.25462962962963","216"
"Strana soukromníků České republiky","0.254601226993865","326"
"ANO 2011","0.252043596730245","734"
"Sdružení pro republiku – Republikánská strana Československa Miroslava Sládka","0.251798561151079","139"
"Hradecký demokratický klub","0.25","8"
"Konzervativní strana","0.25","32"
"Strana Práv Občanů","0.25","384"
"JIHOČEŠTÍ HASIČI","0.236363636363636","55"
"Moravané","0.236363636363636","220"
"Česká pirátská strana","0.231805929919137","371"
"OBČANÉ 2011","0.230769230769231","13"
"STAROSTOVÉ A NEZÁVISLÍ","0.230290456431535","482"
"Národní demokracie","0.230113636363636","352"
"ProOlomouc","0.222222222222222","9"
"HNUTÍ NEZÁVISLÝCH ZA HARMONICKÝ ROZVOJ OBCÍ A MĚST","0.22","50"
"Starostové pro Liberecký kraj","0.22","50"
"Křesťanská a demokratická unie - Československá strana lidová","0.21900826446281","484"
"Dělnická strana sociální spravedlnosti","0.209459459459459","444"
"TOP 09","0.206168831168831","616"
"Starostové pro občany","0.2","50"
"Občanská demokratická strana","0.193150684931507","730"
"SDRUŽENÍ PRO REPUBLIKU - REPUBLIKÁNSKÁ STRANA ČECH, MORAVY A SLEZSKA","0.191358024691358","162"
"Hnutí Občané pro Budějovice","0.1875","16"
"Nestraníci","0.185185185185185","27"
"HNUTÍ OSOBNOSTÍ KRAJE","0.181818181818182","33"
"Volba pro město","0.181818181818182","11"
"Volte Pravý Blok-stranu za ODVOLAT.polit.,NÍZKÉ daně,VYROVN.rozp.,MIN.byrokr.,SPRAV.just.,PŘÍMOU demokr. WWW.CIBULKA.NET","0.178571428571429","28"
"Strana svobodných občanů","0.152073732718894","434"
"Nový směr","0.125","8"
"Ostravak","0.12","25"
"Romská demokratická strana","0.0869565217391304","23"
"Československá strana socialistická","0","2"
"Hnutí FAIR PLAY","0","1"
"Karlovarská občanská alternativa","0","4"
"Pardubice pro lidi","0","3"
"Žít Brno","0","6"
